{
  "version": "1.0.0-*",

  "dependencies": {
    "App.Data": "1.0.0-*",
    "App.Domain": "1.0.0-*",
    "App.Helper": "1.0.0-*",
    "App.Services": "1.0.0-*",
    "Modular.Core": "1.0.0-*",
    "NEST": "5.3.1",
    "NETStandard.Library": "1.6.1"
  },

  "frameworks": {
    "netstandard1.6": {
      "imports": "dnxcore50"
    }
  }
}
